C:\Users\AleBrito\Desktop\practica_gitkraken\Avehis\src\main\java\Entidades\Cuenta.java
C:\Users\AleBrito\Desktop\practica_gitkraken\Avehis\src\main\java\Entidades\Departamento.java
C:\Users\AleBrito\Desktop\practica_gitkraken\Avehis\src\main\java\Entidades\Municipio.java
C:\Users\AleBrito\Desktop\practica_gitkraken\Avehis\src\main\java\Entidades\Enlace.java
C:\Users\AleBrito\Desktop\practica_gitkraken\Avehis\src\main\java\Entidades\Cliente.java
